{
	"info": {
		"_postman_id": "de03c5e8-8d0b-46d5-9e36-aec25c35e498",
		"name": "s35-activity",
		"schema": "https://schema.getpostman.com/json/collection/v2.1.0/collection.json",
		"_exporter_id": "28342297"
	},
	"item": [
		{
			"name": "new signup",
			"request": {
				"method": "GET",
				"header": []
			},
			"response": []
		}
	]
}